@startuml
class Object
class String
Object <|-- String
note on link: o: Object\ns: String
note right of Object
Un String és un Object.

És correcte:
Object o = s;
end note
note right of String
Un Object pot ser o no un String.

No és correcte:
String s = o;

A evitar:
String s = (String) o;
end note
@enduml
